{"data":{"pagination":{"has_next":true,"has_prev":false,"page":1,"pages":2,"per_page":5,"total":10},"statistics":[{"cattle_ear_tag":"YG011","cattle_id":11,"created_at":"2025-10-30T12:11:35","drinking_time":6,"eating_time":45,"id":11,"lying_time":225,"pen_id":2,"pen_number":"A002","standing_time":195,"stat_date":"2024-12-29","total_active_time":491,"updated_at":"2025-10-30T12:11:35","walking_time":20},{"cattle_ear_tag":"YG018","cattle_id":18,"created_at":"2025-10-30T12:11:35","drinking_time":7,"eating_time":51,"id":18,"lying_time":255,"pen_id":5,"pen_number":"C001","standing_time":165,"stat_date":"2024-12-29","total_active_time":499,"updated_at":"2025-10-30T12:11:35","walking_time":21},{"cattle_ear_tag":"YG017","cattle_id":17,"created_at":"2025-10-30T12:11:35","drinking_time":5,"eating_time":47,"id":17,"lying_time":230,"pen_id":5,"pen_number":"C001","standing_time":190,"stat_date":"2024-12-29","total_active_time":489,"updated_at":"2025-10-30T12:11:35","walking_time":17},{"cattle_ear_tag":"YG012","cattle_id":12,"created_at":"2025-10-30T12:11:35","drinking_time":7,"eating_time":50,"id":12,"lying_time":210,"pen_id":2,"pen_number":"A002","standing_time":190,"stat_date":"2024-12-29","total_active_time":472,"updated_at":"2025-10-30T12:11:35","walking_time":15},{"cattle_ear_tag":"YG010","cattle_id":10,"created_at":"2025-10-30T12:11:35","drinking_time":8,"eating_time":50,"id":10,"lying_time":270,"pen_id":1,"pen_number":"A001","standing_time":160,"stat_date":"2024-12-29","total_active_time":503,"updated_at":"2025-10-30T12:11:35","walking_time":15}]},"success":true}
